{
    "key": "group_5b06b7b278a4b",
    "title": "Page Configuration",
    "fields": [
        {
            "key": "field_5b06b7b917c1b",
            "label": "Header Text",
            "name": "header_text",
            "type": "group",
            "instructions": "",
            "required": 0,
            "conditional_logic": 0,
            "wrapper": {
                "width": "",
                "class": "",
                "id": ""
            },
            "layout": "block",
            "sub_fields": [
                {
                    "key": "field_5b06b7ca17c1c",
                    "label": "Title",
                    "name": "title",
                    "type": "text",
                    "instructions": "It'll override the original page title.",
                    "required": 0,
                    "conditional_logic": 0,
                    "wrapper": {
                        "width": "50",
                        "class": "",
                        "id": ""
                    },
                    "default_value": "",
                    "placeholder": "",
                    "prepend": "",
                    "append": "",
                    "maxlength": ""
                },
                {
                    "key": "field_5c23e87489789",
                    "label": "Subtitle",
                    "name": "subtitle",
                    "type": "text",
                    "instructions": "It'll complement the primary title.",
                    "required": 0,
                    "conditional_logic": 0,
                    "wrapper": {
                        "width": "50",
                        "class": "",
                        "id": ""
                    },
                    "default_value": "",
                    "placeholder": "",
                    "prepend": "",
                    "append": "",
                    "maxlength": ""
                }
            ]
        },
        {
            "key": "field_5b06bca5578f2",
            "label": "Page Style",
            "name": "page_style",
            "type": "radio",
            "instructions": "Only applicable to the 'Default' Template'.",
            "required": 0,
            "conditional_logic": 0,
            "wrapper": {
                "width": "",
                "class": "acf-image-select",
                "id": ""
            },
            "choices": {
                "is_standard": "<img src=\"..\/..\/wp-content\/plugins\/capstone-pro\/metaboxes\/images\/page-standard.png\"><p>Standard Page<\/p>",
                "is_sidebar": "<img src=\"..\/..\/wp-content\/plugins\/capstone-pro\/metaboxes\/images\/page-sidebar.png\"><p>Page with Sidebar<\/p>",
                "is_full_width": "<img src=\"..\/..\/wp-content\/plugins\/capstone-pro\/metaboxes\/images\/page-full-width.png\"><p>Full-Width Page<\/p>"
            },
            "allow_null": 0,
            "other_choice": 0,
            "save_other_choice": 0,
            "default_value": "is_standard",
            "layout": "horizontal",
            "return_format": "value"
        },
        {
            "key": "field_5c155413070b2",
            "label": "Page Enhancements",
            "name": "page_enhancements",
            "type": "checkbox",
            "instructions": "",
            "required": 0,
            "conditional_logic": [
                [
                    {
                        "field": "field_5b06bca5578f2",
                        "operator": "==",
                        "value": "is_sidebar"
                    }
                ]
            ],
            "wrapper": {
                "width": "",
                "class": "",
                "id": ""
            },
            "choices": {
                "remove_border": "Remove border between Sidebar and Main Content"
            },
            "allow_custom": 0,
            "save_custom": 0,
            "default_value": [],
            "layout": "vertical",
            "toggle": 0,
            "return_format": "value"
        }
    ],
    "location": [
        [
            {
                "param": "post_type",
                "operator": "==",
                "value": "page"
            },
            {
                "param": "page_template",
                "operator": "==",
                "value": "default"
            }
        ]
    ],
    "menu_order": 0,
    "position": "normal",
    "style": "default",
    "label_placement": "top",
    "instruction_placement": "label",
    "hide_on_screen": "",
    "active": 1,
    "description": "",
    "modified": 1545857273
}